﻿{
  "configurations": [
    {
      "name": "x64-Clang-Debug",
      "generator": "Ninja",
      "configurationType": "Debug",
      "buildRoot": "${projectDir}\\build\\${name}",
      "installRoot": "${projectDir}\\build\\install\\${name}",
      "cmakeCommandArgs": "",
      "buildCommandArgs": "-v",
      "ctestCommandArgs": "",
      "inheritEnvironments": [ "clang_cl_x64" ],
      "variables": [],
      "cmakeToolchain": "${projectDir}\\build\\Debug\\conan_paths.cmake",
      "intelliSenseMode": "windows-msvc-x64"
    },
    {
      "name": "x64-Clang-Release",
      "generator": "Ninja",
      "configurationType": "RelWithDebInfo",
      "buildRoot": "${projectDir}\\build\\${name}",
      "installRoot": "${projectDir}\\build\\install\\${name}",
      "cmakeCommandArgs": "",
      "buildCommandArgs": "-v",
      "ctestCommandArgs": "",
      "inheritEnvironments": [ "clang_cl_x64" ],
      "variables": [],
      "cmakeToolchain": "${projectDir}\\build\\Release\\conan_paths.cmake",
      "intelliSenseMode": "windows-msvc-x64"
    },
    {
      "name": "x64-Debug",
      "generator": "Ninja",
      "configurationType": "Debug",
      "buildRoot": "${projectDir}\\build\\${name}",
      "installRoot": "${projectDir}\\build\\install\\${name}",
      "cmakeCommandArgs": "",
      "buildCommandArgs": "-v",
      "ctestCommandArgs": "",
      "cmakeToolchain": "${projectDir}\\build\\Debug\\conan_paths.cmake",
      "inheritEnvironments": [ "msvc_x64_x64" ],
      "intelliSenseMode": "windows-msvc-x64",
      "variables": []
    },
    {
      "name": "x64-Release",
      "generator": "Ninja",
      "configurationType": "Release",
      "buildRoot": "${projectDir}\\build\\${name}",
      "installRoot": "${projectDir}\\build\\install\\${name}",
      "cmakeCommandArgs": "",
      "buildCommandArgs": "-v",
      "ctestCommandArgs": "",
      "cmakeToolchain": "${projectDir}\\build\\Release\\conan_paths.cmake",
      "inheritEnvironments": [ "msvc_x64_x64" ],
      "intelliSenseMode": "windows-msvc-x64",
      "variables": []
    }
  ]
}